<?xml version="1.0" encoding="utf-8"?>
<!-- Generator: Adobe Illustrator 21.0.0, SVG Export Plug-In . SVG Version: 6.00 Build 0)  -->
<svg version="1.1" id="Layer_1" xmlns="http://www.w3.org/2000/svg" xmlns:xlink="http://www.w3.org/1999/xlink" x="0px" y="0px"
	 viewBox="0 0 746 610" style="enable-background:new 0 0 746 610;" xml:space="preserve">
<style type="text/css">
	.st0{fill:url(#SVGID_1_);}
	.st1{fill:#414042;}
	.st2{fill:#FFFFFF;}
	.st3{fill:#BCBEC0;}
	.st4{fill:#0713E8;}
</style>
<g>
	<g>
		<g>
			
				<linearGradient id="SVGID_1_" gradientUnits="userSpaceOnUse" x1="427.137" y1="463.3482" x2="105.4444" y2="94.7941" gradientTransform="matrix(0.9008 0.4342 -0.4342 0.9008 122.0109 -106.4434)">
				<stop  offset="0" style="stop-color:#00C4F4"/>
				<stop  offset="0.1753" style="stop-color:#00C2F1"/>
				<stop  offset="0.3093" style="stop-color:#00BAE7"/>
				<stop  offset="0.4295" style="stop-color:#00ADD7"/>
				<stop  offset="0.5417" style="stop-color:#009AC0"/>
				<stop  offset="0.6484" style="stop-color:#0082A2"/>
				<stop  offset="0.751" style="stop-color:#00657D"/>
				<stop  offset="0.8502" style="stop-color:#004252"/>
				<stop  offset="0.9442" style="stop-color:#001A21"/>
				<stop  offset="1" style="stop-color:#000000"/>
			</linearGradient>
			<path class="st0" d="M307.2,107l-179,2.2L59,252.8l109.8,141.4l179-2.2l69.2-143.6L307.2,107z M274.5,198.5l19.2,9.2l-19.8,19.5
				c-0.1-0.2-0.2-0.4-0.4-0.6c-4.8-4.4-11-8-17.2-10.1L274.5,198.5z M171.1,195.5l-53.5-3.9l36.3,39.6l-8.7,18.1l-51.1-60.3
				l6.7-13.8l79,2.4L171.1,195.5z M151.4,238.4c7.9-8.2,29.3,3.3,39.9,12.5c5.7,4.9,11.2,4.8,15.7,3.5c5.2-20.7,19.2-37.6,34.4-38.8
				c5.2-0.4,10,0.4,14.4,1.8c0.1,0,0.2,0.1,0.3,0.1l-0.3,0.3l-0.4,0.4l-48.1,46.8c-0.3-0.8-0.5-1.5-0.6-2.3c0,0,0-0.1,0-0.1
				c-8.4,2.4-20.2,3.8-31.9-1.4C153,251.5,142.9,247.2,151.4,238.4z M372.1,322.9l-79-2.4l8.7-18.1l53.6,3.8L319,266.8l2.7-5.5
				c-0.2,0.1-0.4,0.2-0.7,0.2c-0.3,0-0.6,0-0.9,0c-4.9,4.6-11.8,2.1-17,3.1c-3.5,0.7-5.9,5.6-3,7.4c1.8,1.1,4.2,1.6,6.7,2
				c8.4,1.5,8.1,9.7,4.2,8.6c-3.9-1.1-10-2-13.1-2c-11.2,0.1-16.8-2-20.1-4.6c-2.1-1.6-4.6-2.5-7.2-2.7l-4.9-0.3l0,0
				c-0.2,1.8-0.9,3.4-1.8,4.8c-0.1,0.2-0.2,0.3-0.4,0.5c-0.3,0.3-0.5,0.7-0.8,1c-0.4,0.5-0.8,0.9-1.3,1.3c-2.6,2.4-5.5,3.6-5.5,3.6
				c5.8,2.8,11,8.4,7.8,15c-10.5-3.5-23.5-11.1-33.6-15c-0.5-0.2-0.9-0.4-1.4-0.6c-2.4-1-5.1-2.5-7.7-4.2l-21,20.7l-19-9.2
				l27.9-27.6c0,0.3,0.2,0.7,0.6,1c2.5,2,4,4.9,6.2,7.1c1.9,2,4.5,3.7,5.5,6.2c0.1,0.3,0.4,0.6,0.6,0.8l51.8-51.6
				c4.8,3.4,8.7,6.5,11.5,7.6c3.3,1.2,8.5-0.5,13.9-0.4c0.2-1.4,1-2.6,2.2-3.2c2-1,4.4,0,5.4,2.3c0.3,0.8,0.5,1.7,0.5,2.6
				c9.6,4.1,15.4,14.6,15.7,20.2c0.3,0.7,0.5,1.5,0.5,2.2l4.6-9.5l51.1,60.3L372.1,322.9z"/>
		</g>
	</g>
</g>
<g>
	<g>
		<g>
			<path class="st1" d="M404.8,408.6c1.2,0,2.4-0.9,2.7-2.1l59.7-265.3c0.3-1.5-0.6-2.9-2.1-3.3c-1.5-0.3-2.9,0.6-3.3,2.1
				l-59.7,265.3c-0.3,1.5,0.6,2.9,2.1,3.3C404.4,408.6,404.6,408.6,404.8,408.6z"/>
		</g>
		<g>
			<path class="st1" d="M354.7,408.6c1.5,0,2.7-1.1,2.7-2.6l10.4-247.5c0.1-1.5-1.1-2.8-2.6-2.8c-1.5-0.1-2.8,1.1-2.8,2.6L352,405.8
				c-0.1,1.5,1.1,2.8,2.6,2.8C354.7,408.6,354.7,408.6,354.7,408.6z"/>
		</g>
		<g>
			<path class="st1" d="M290.9,408.6c0,0,0.1,0,0.1,0c1.5-0.1,2.7-1.3,2.6-2.8l-10.3-233.4c-0.1-1.5-1.3-2.7-2.8-2.6
				c-1.5,0.1-2.7,1.3-2.6,2.8L288.2,406C288.3,407.5,289.5,408.6,290.9,408.6z"/>
		</g>
		<g>
			<path class="st1" d="M224.7,408.6c0.1,0,0.2,0,0.4,0c1.5-0.2,2.5-1.6,2.4-3.1L199,185.4c-0.2-1.5-1.6-2.5-3.1-2.4
				c-1.5,0.2-2.5,1.6-2.4,3.1L222,406.2C222.2,407.6,223.4,408.6,224.7,408.6z"/>
		</g>
		<g>
			<path class="st1" d="M165.3,408.6c0.2,0,0.5,0,0.7-0.1c1.5-0.4,2.3-1.9,1.9-3.4l-57.4-206.6c-0.4-1.5-1.9-2.3-3.4-1.9
				c-1.5,0.4-2.3,1.9-1.9,3.4l57.4,206.6C163,407.8,164.1,408.6,165.3,408.6z"/>
		</g>
		<g>
			<path class="st1" d="M47.7,268.2c0.1,0,0.3,0,0.4,0l507.4-79.7c1.5-0.2,2.5-1.6,2.3-3.1c-0.2-1.5-1.6-2.5-3.1-2.3L47.3,262.8
				c-1.5,0.2-2.5,1.6-2.3,3.1C45.2,267.2,46.4,268.2,47.7,268.2z"/>
		</g>
		<g>
			<path class="st1" d="M59.8,323.1c0.1,0,0.3,0,0.4,0L520,260.3c1.5-0.2,2.5-1.6,2.3-3.1c-0.2-1.5-1.6-2.5-3.1-2.3L59.5,317.7
				c-1.5,0.2-2.5,1.6-2.3,3.1C57.3,322.1,58.5,323.1,59.8,323.1z"/>
		</g>
		<g>
			<path class="st1" d="M86,370.1c0.1,0,0.1,0,0.2,0l391.6-32.5c1.5-0.1,2.6-1.4,2.5-2.9c-0.1-1.5-1.4-2.6-2.9-2.5L85.8,364.7
				c-1.5,0.1-2.6,1.4-2.5,2.9C83.4,369,84.6,370.1,86,370.1z"/>
		</g>
	</g>
	<path class="st1" d="M28.6,241.5c11.2,53.9,25.2,88,48.7,135.7c7.8,16,34.1,39.6,65.6,39.6h286.8c6.9,18.7,25.3,69,32.5,89.7
		c2.5,7.3,2.3,13.6-0.6,18.2c-2.3,3.5-5.3,4.8-6.2,4.9l-333.2,0c-6,0-10.9,4.9-10.9,10.9c0,6,4.9,10.9,10.9,10.9h333.3
		c8.5,0,17.7-5.3,23.6-13.5c4.3-6.1,10.5-19.1,3.8-38.5c-7.6-21.9-27.7-76.5-33.6-92.7l152.1-284.2c0,0,0-0.1,0.1-0.1l22-41.1
		l77.5-30.6c5.6-2.2,8.3-8.5,6.1-14.1c-2.2-5.6-8.5-8.4-14.1-6.1L607.9,64l-23.3,43.6c-44.2,8.1-381.6,65.3-509.5,83.5
		c-21.3,3-34.6,9.3-41.8,19.6C27.6,218.8,26,229.2,28.6,241.5z M51.2,223.2c3.4-4.9,34.8-8.4,49.3-10.5
		c117.3-16.8,391.1-66.1,471-80.6L430.7,395H142.9c-23.2,0-42.1-19.3-46-27.4C73.7,320.5,60.8,289,49.9,237
		C48,227.7,50.4,224.3,51.2,223.2z"/>
	<g>
		<circle cx="177" cy="546.4" r="44.3"/>
		<circle class="st2" cx="177" cy="546.4" r="27.8"/>
		<circle class="st1" cx="177" cy="546.4" r="5.4"/>
		<path class="st3" d="M164.7,553.1c0-10.5,8.5-19,19-19c3.3,0,6.4,0.8,9.1,2.3c-3.2-5.9-9.5-9.9-16.7-9.9c-10.5,0-19,8.5-19,19
			c0,7.2,4,13.5,9.9,16.7C165.5,559.5,164.7,556.4,164.7,553.1z"/>
	</g>
	<g>
		<circle cx="409" cy="546.4" r="44.3"/>
		<circle class="st2" cx="409" cy="546.4" r="27.8"/>
		<circle class="st1" cx="409" cy="546.4" r="5.4"/>
		<path class="st3" d="M396.7,553.1c0-10.5,8.5-19,19-19c3.3,0,6.4,0.8,9.1,2.3c-3.2-5.9-9.5-9.9-16.7-9.9c-10.5,0-19,8.5-19,19
			c0,7.2,4,13.5,9.9,16.7C397.5,559.5,396.7,556.4,396.7,553.1z"/>
	</g>
	<path class="st4" d="M629.8,46.4l76.7-30c7.9-3.1,16.9,0.8,20,8.8l3.1,8c3.1,7.9-0.8,16.9-8.8,20l-76.6,30L629.8,46.4z"/>
</g>
</svg>
